<?xml version="1.0" encoding="utf-8"?>
<!-- Generator: Adobe Illustrator 23.0.4, SVG Export Plug-In . SVG Version: 6.00 Build 0)  -->
<svg version="1.1" id="Capa_1" xmlns="http://www.w3.org/2000/svg" xmlns:xlink="http://www.w3.org/1999/xlink" x="0px" y="0px"
	 viewBox="0 0 1388.7 346.2" style="enable-background:new 0 0 1388.7 346.2;" xml:space="preserve">
<style type="text/css">
	.st0{fill-rule:evenodd;clip-rule:evenodd;fill:#004C74;}
	.st1{fill-rule:evenodd;clip-rule:evenodd;fill:#8F348A;}
	.st2{fill-rule:evenodd;clip-rule:evenodd;fill:#00B6BC;}
	.st3{fill-rule:evenodd;clip-rule:evenodd;fill:#5B9E14;}
	.st4{fill-rule:evenodd;clip-rule:evenodd;fill:#FE4200;}
	.st5{fill:#004C74;}
</style>
<g>
	<path class="st0" d="M140.2,264.4l-5.2-0.9c0,0,0,0-0.1,0s0,0-0.1,0c-0.9-0.1-1.9-0.5-3-1.1c-1.5-0.8-2.6-1.9-3.5-3L90,199.4
		l12.6-8.2l13.7,2.6l9.6,1.8l35.4,55.1L140.2,264.4z"/>
	<path class="st0" d="M108.4,259.3l-39.1-5.7c-1.1-0.3-2.1-0.9-3-1.8c-0.7-0.7-1.2-1.4-1.5-2.2c0-0.1-0.1-0.1-0.1-0.1l-0.2-0.4l0,0
		L5.7,132.7c0.1-0.1,0.1-0.1,0.1-0.2c-0.1-0.1-0.1-0.2-0.2-0.3c-0.3-0.4-0.6-0.8-0.8-1.2l-4.3-8.5c-2.5-8.3,3.7-10.5,16.3-8.7
		l1.4,0.2c-0.1,0,0.2,0,0.5,0.1v0c0.6,0.1,1.1,0.2,1.7,0.3c0,0,0,0,0,0l13.7,2.1l62.7,9.7l-12,34l-28.7-4.5L108.4,259.3z"/>
	<path class="st0" d="M228.6,275.9l-33.6-4.4h-0.1c0,0,0,0,0,0h0.1l0.2,0c-0.9-0.3-1.9-0.8-2.7-1.6c-1.2-1.1-1.8-2.5-2-3.8l0,0.2
		l-29.7-119.4l33.9,5.5l-0.5-0.1c1,0.3,2,0.8,2.9,1.7c1.2,1.1,1.8,2.4,2,3.7l0-0.2L228.6,275.9z"/>
	<path class="st0" d="M293.9,285.9l-31.8-5c-1.2-0.2-2.3-0.8-3.2-1.8c-1.1-1.1-1.6-2.5-1.7-3.8v0.1L239.6,87.6l22.9-2.3l10.5,2.4
		c0.9,0.3,1.8,0.8,2.5,1.6c0.9,0.9,1.4,2,1.6,3.1l18.2,193.2L293.9,285.9z"/>
	<path class="st0" d="M352.3,62L333.9,0.9l35.5,3.6c0.6,0.1,1.2,0.3,1.7,0.7c0.9,0.6,1.6,1.5,2,2.4l14.7,48.8l0-0.1
		c0,0.1,0,0.1,0.1,0.1l0.5,1.6c0.1,0.7,0,1.4-0.3,1.8c-0.4,0.6-1.1,0.8-2,0.7l-31.8-8L352.3,62z"/>
	<path class="st1" d="M108.4,259.3l-34.6-5l0-0.4l0,0.4l-3.8-0.6c0.8-0.1,1.6-0.4,2.4-0.9c1-0.7,1.6-1.7,1.9-2.8l6.1-57.4v0.1
		c0.1-1.3,0.6-2.6,1.7-3.5c0.7-0.7,1.6-1.1,2.6-1.2c0.1,0,0.2,0,0.3,0l37.1,6.9v0.1v-0.1l0.2,0.1l3.7,0.7c-0.9,0.1-1.7,0.3-2.5,0.8
		c-1,0.7-1.7,1.7-1.9,2.9l-5.8,54.4c-0.4,1.7-1.3,3.2-2.8,4.3C111.6,259,110,259.4,108.4,259.3z"/>
	<path class="st2" d="M176.9,270.3l-38-6.2l-3.2-0.5l-1-0.2h0.1c1,0.1,2.1-0.3,3-1.3c0.8-0.9,1.4-2.2,1.6-3.6l8-108.1
		c0.2-1.3,0.8-2.6,1.9-3.6c1.1-0.9,2.4-1.5,3.7-1.5l0.1,0c0.1,0,0.1,0,0.1,0l36.8,6.2l3,0.5l1.7,0.3h-0.1c-1.1-0.1-2.3,0.2-3.2,1
		c-0.9,0.8-1.5,2-1.8,3.2l-8,108.7c-0.3,1.3-1,2.6-2.1,3.6C178.7,269.6,177.8,270,176.9,270.3z"/>
	<path class="st3" d="M234.5,276.6l-35-4.5l-4.4-0.6c1,0,2.1-0.3,3-0.9c1.1-0.7,1.8-1.8,2-3.1l24.5-182.1v0.1
		c0.2-1.9,1.2-3.9,2.8-5.2c1.5-1.2,3.2-1.8,4.9-1.9h0.1l-0.1,0l-0.8,0c0.1,0,0.3,0,0.4,0c0.1,0,0.2,0,0.3,0l33.6,7.8l-0.3,2.1
		l0.3-2.1l7.3,1.7h0c-1.7-0.3-3.6-0.1-5.1,0.8c-1.6,0.9-2.6,2.4-3.1,4.1l-24.3,180c-0.3,1.1-0.9,2.2-2,2.9c-1,0.7-2.2,1-3.3,0.9
		h-0.1h0.1H234.5z"/>
	<path class="st4" d="M307.3,288L307.3,288l0.5-2.8L307.3,288z M306.7,287.9l-39.8-6.2v0h-0.1l-4.2-0.7l-1.2-0.2c0,0,0.1,0,0.1,0
		c1.3,0.1,2.7-0.1,3.9-0.9c1.2-0.8,2.1-2,2.5-3.3L322.1,4.6c0.3-1.2,1-2.3,2.1-3.1c1.1-0.8,2.4-1.2,3.6-1.1L324.1,0l3.8,0.4L363.9,4
		l4.7,0.5v0l0.6,0.1c0,0,0,0-0.1,0c-1.3-0.1-2.6,0.3-3.8,1.1c-1.3,0.9-2.2,2.3-2.6,3.7l1.1-5.4L308,284.1c-0.3,1-1,2-2,2.6
		c-0.7,0.4-1.4,0.7-2.2,0.7L306.7,287.9z"/>
	<path class="st0" d="M86.8,301c4.8-19.6,24.6-31.7,44.2-27c19.6,4.8,31.7,24.6,27,44.2c-4.7,19.6-24.6,31.7-44.2,27
		C94.1,340.5,82,320.6,86.8,301z"/>
	<path class="st0" d="M215.6,310.4c3.6-15.1,18.9-24.4,33.9-20.7c15.1,3.6,24.4,18.9,20.7,33.9c-3.7,15.1-18.9,24.4-34,20.7
		C221.3,340.8,212,325.6,215.6,310.4z"/>
	<g>
		<path class="st5" d="M410.4,208.6c-0.7-0.7-1.1-1.7-1.1-2.8v-95c0-1.1,0.4-2.1,1.1-2.8c0.7-0.7,1.7-1.1,2.8-1.1h63.4
			c1.1,0,2,0.4,2.8,1.1c0.8,0.7,1.2,1.7,1.2,2.8c0,1.1-0.4,2-1.2,2.8c-0.8,0.8-1.7,1.2-2.8,1.2h-59.4v39.5h43.6
			c1.1,0,2.1,0.4,2.8,1.1c0.7,0.7,1.1,1.7,1.1,2.8c0,1.1-0.4,2.1-1.1,2.9c-0.7,0.8-1.7,1.2-2.8,1.2h-43.6v39.5h59.4
			c1.1,0,2,0.4,2.8,1.2c0.8,0.8,1.2,1.7,1.2,2.8c0,1.1-0.4,2.1-1.2,2.8c-0.8,0.7-1.7,1.1-2.8,1.1h-63.4
			C412,209.8,411.1,209.4,410.4,208.6z"/>
		<path class="st5" d="M548.5,140.7c5.1,2.6,9,6.5,11.9,11.5c2.9,5.1,4.3,11.1,4.3,18.1v35.5c0,1.1-0.4,2.1-1.1,2.8
			c-0.7,0.7-1.7,1.1-2.8,1.1c-1.1,0-2.1-0.4-2.8-1.1c-0.7-0.7-1.1-1.7-1.1-2.8v-35.5c0-8.3-2.4-14.7-7.1-19.1
			c-4.7-4.4-10.8-6.6-18.4-6.6c-4.7,0-8.9,0.9-12.7,2.7c-3.8,1.8-6.8,4.3-9,7.5c-2.2,3.2-3.3,6.7-3.3,10.6v40.3
			c0,1.1-0.4,2.1-1.1,2.8c-0.7,0.7-1.7,1.1-2.9,1.1c-1.1,0-2.1-0.4-2.8-1.1c-0.7-0.7-1.1-1.7-1.1-2.8v-64.2c0-1.2,0.4-2.2,1.1-2.9
			c0.7-0.7,1.7-1.1,2.8-1.1c1.2,0,2.2,0.4,2.9,1.1c0.7,0.7,1.1,1.7,1.1,2.9v6.9c3-3.7,6.6-6.6,10.9-8.6c4.3-2.1,9-3.1,14.1-3.1
			C537.7,136.7,543.4,138.1,548.5,140.7z"/>
		<path class="st5" d="M643.3,141.2c0,0.6-0.1,1.1-0.3,1.4l-29.7,64.5c-0.9,1.8-2.3,2.8-4.2,2.8c-0.8,0-1.5-0.2-2.2-0.7
			c-0.7-0.5-1.2-1.2-1.5-2l-30.1-64.3c-0.2-0.4-0.3-0.8-0.3-1.4c0-1.6,0.7-2.7,2.2-3.4c0.5-0.3,1.1-0.4,1.6-0.4
			c1.5,0,2.6,0.7,3.3,2.2l27,58.5l26.6-58.7c0.7-1.5,1.8-2.2,3.4-2.2c0.6,0,1.2,0.1,1.7,0.4C642.6,138.5,643.3,139.6,643.3,141.2z"
			/>
		<path class="st5" d="M659.9,120.7c-1.1-1.2-1.7-2.7-1.7-4.4c0-1.9,0.6-3.4,1.8-4.5c1.2-1.1,2.7-1.6,4.3-1.6c1.7,0,3.1,0.5,4.3,1.6
			c1.2,1.1,1.8,2.5,1.8,4.5c0,1.8-0.6,3.2-1.8,4.4c-1.2,1.2-2.7,1.8-4.4,1.8C662.5,122.5,661.1,121.9,659.9,120.7z M661.6,208.6
			c-0.7-0.7-1.1-1.7-1.1-2.8v-64.2c0-1.2,0.4-2.2,1.1-2.9c0.7-0.7,1.7-1.1,2.8-1.1c1.2,0,2.2,0.4,2.9,1.1c0.7,0.7,1.1,1.7,1.1,2.9
			v64.2c0,1.1-0.4,2.1-1.1,2.8c-0.7,0.7-1.7,1.1-2.9,1.1C663.3,209.8,662.3,209.4,661.6,208.6z"/>
		<path class="st5" d="M746.4,141.7c5.6,3.2,10,7.6,13.2,13.2c3.2,5.6,4.8,11.9,4.8,18.8v32c0,1.1-0.4,2.1-1.1,2.8
			c-0.7,0.7-1.7,1.1-2.9,1.1c-1.1,0-2.1-0.4-2.8-1.1c-0.7-0.7-1.1-1.7-1.1-2.8v-10.3c-2.9,4.7-6.9,8.3-11.9,11
			c-5.1,2.7-10.7,4-16.9,4c-6.9,0-13.2-1.6-18.8-4.8c-5.6-3.2-10-7.6-13.2-13.2c-3.2-5.6-4.8-11.9-4.8-18.7c0-6.9,1.6-13.2,4.8-18.8
			c3.2-5.6,7.6-10,13.2-13.2c5.6-3.2,11.9-4.8,18.8-4.8C734.5,136.9,740.8,138.5,746.4,141.7z M742.4,199.4
			c4.4-2.5,7.8-6.1,10.3-10.5c2.5-4.5,3.8-9.5,3.8-15c0-5.5-1.3-10.5-3.8-15c-2.5-4.5-6-8-10.3-10.6c-4.4-2.6-9.3-3.9-14.8-3.9
			c-5.5,0-10.4,1.3-14.8,3.9c-4.4,2.6-7.9,6.1-10.4,10.6c-2.5,4.5-3.8,9.5-3.8,15c0,5.5,1.3,10.5,3.8,15c2.5,4.5,6,8,10.4,10.5
			c4.4,2.6,9.3,3.8,14.8,3.8C733.1,203.2,738,201.9,742.4,199.4z"/>
		<path class="st5" d="M795,205.3c-7-3.9-11.8-8.9-14.4-15.2c-0.4-1.1-0.7-1.9-0.7-2.6c0-1.3,0.5-2.5,1.5-3.5c1-1,2.3-1.7,4-2
			c0.3-0.1,0.7-0.1,1.3-0.1c1.4,0,2.7,0.4,4,1.3c1.3,0.8,2.2,2,2.8,3.4c1.6,3.4,4.7,6.3,9.4,8.7c4.7,2.4,9.8,3.6,15.4,3.6
			c6.6,0,12.2-1.5,16.7-4.5c4.6-3,6.9-7.2,6.9-12.5c0-5-1.9-9.3-5.8-12.9c-3.9-3.6-9.8-5.7-17.7-6.5c-10.9-1.1-19.5-4.2-25.7-9.6
			c-6.2-5.3-9.4-12-9.4-20c0-5.6,1.6-10.5,4.8-14.6c3.2-4.1,7.6-7.2,13.2-9.4c5.6-2.2,11.8-3.2,18.8-3.2c7.6,0,13.9,1.5,19.1,4.6
			c5.2,3.1,9.6,7.5,13.2,13.2c1.1,1.7,1.6,3.3,1.6,4.7c0,1.9-0.9,3.5-2.6,4.7c-1,0.6-2.1,0.9-3.4,0.9c-1.3,0-2.5-0.3-3.7-1
			c-1.1-0.7-2-1.6-2.6-2.7c-2.4-4-5.3-7-8.9-9c-3.6-2.1-8.1-3.1-13.5-3.1c-6.7,0-12.1,1.3-16.2,3.9c-4.1,2.6-6.2,6.3-6.2,11.3
			c0,4.6,1.8,8.4,5.5,11.5c3.7,3.1,10.3,5.1,19.8,6.1c10.5,1.1,18.7,4.2,24.5,9.6c5.8,5.3,8.7,12.3,8.7,21c0,6.3-1.7,11.8-5.1,16.3
			c-3.4,4.5-8,7.9-13.6,10.1c-5.7,2.2-11.8,3.4-18.3,3.4C809.7,211.1,802,209.2,795,205.3z"/>
		<path class="st5" d="M927.1,141c4.8,2.6,8.6,6.5,11.3,11.5c2.7,5.1,4.1,11.1,4.1,18.3v32.4c0,1.9-0.6,3.5-1.9,4.8
			c-1.3,1.3-2.9,1.9-4.8,1.9c-1.9,0-3.5-0.6-4.8-1.9c-1.3-1.3-1.9-2.9-1.9-4.8v-32.4c0-7.1-1.9-12.5-5.7-16.1
			c-3.8-3.6-8.9-5.5-15.2-5.5c-3.7,0-7.1,0.7-10.1,2.2c-3,1.5-5.4,3.5-7.1,6.1c-1.7,2.5-2.6,5.4-2.6,8.6v37.2c0,1.9-0.6,3.5-1.8,4.8
			c-1.2,1.3-2.9,1.9-4.9,1.9c-1.9,0-3.5-0.6-4.8-1.9c-1.3-1.3-1.9-2.9-1.9-4.8v-89.6c0-2,0.6-3.6,1.9-4.9c1.3-1.2,2.9-1.8,4.8-1.8
			c2,0,3.6,0.6,4.9,1.8c1.2,1.2,1.8,2.9,1.8,4.9v32.3c2.8-2.8,6.1-5,10-6.5c3.9-1.5,8-2.3,12.4-2.3C916.8,137,922.3,138.3,927.1,141
			z"/>
		<path class="st5" d="M966.8,123.4c-1.7-1.7-2.6-3.8-2.6-6.1c0-2.4,0.9-4.4,2.6-6.1c1.7-1.7,3.8-2.6,6.1-2.6s4.4,0.9,6.1,2.6
			c1.7,1.7,2.6,3.8,2.6,6.1c0,2.4-0.9,4.4-2.6,6.1c-1.7,1.7-3.8,2.6-6.1,2.6S968.6,125.1,966.8,123.4z M968.2,207.9
			c-1.3-1.3-1.9-2.9-1.9-4.8v-58.7c0-2,0.6-3.6,1.9-4.9c1.3-1.2,2.9-1.8,4.8-1.8c2,0,3.6,0.6,4.9,1.8c1.2,1.2,1.8,2.9,1.8,4.9V203
			c0,1.9-0.6,3.5-1.8,4.8c-1.2,1.3-2.9,1.9-4.9,1.9C971,209.8,969.4,209.1,968.2,207.9z"/>
		<path class="st5" d="M1059.5,142c5.6,3.2,10,7.6,13.1,13.2c3.2,5.6,4.7,11.8,4.7,18.7s-1.5,13.1-4.4,18.7c-2.9,5.6-7,10-12.1,13.1
			c-5.1,3.2-10.9,4.7-17.2,4.7c-5.1,0-9.8-1.1-14.2-3.2c-4.4-2.1-8.1-5.1-11.2-8.8v35.6c0,2-0.6,3.6-1.8,4.9
			c-1.2,1.2-2.9,1.8-4.9,1.8c-1.9,0-3.5-0.6-4.8-1.8c-1.3-1.2-1.9-2.9-1.9-4.9v-60.1c0-6.9,1.6-13.1,4.8-18.7
			c3.2-5.6,7.6-10,13-13.2c5.5-3.2,11.6-4.8,18.4-4.8C1047.7,137.1,1053.9,138.7,1059.5,142z M1052.9,195.2c3.6-2.2,6.4-5.1,8.4-8.8
			c2.1-3.7,3.1-7.9,3.1-12.6c0-4.7-1-8.9-3.1-12.7c-2.1-3.8-4.9-6.7-8.4-8.9c-3.6-2.2-7.5-3.2-11.9-3.2c-4.4,0-8.4,1.1-11.9,3.2
			c-3.6,2.2-6.3,5.1-8.4,8.9c-2,3.8-3,8-3,12.7c0,4.7,1,8.9,3,12.6c2,3.7,4.8,6.7,8.4,8.8c3.6,2.2,7.5,3.2,11.9,3.2
			C1045.4,198.4,1049.4,197.4,1052.9,195.2z"/>
		<path class="st5" d="M1152.2,142c5.6,3.2,10,7.6,13.1,13.2c3.2,5.6,4.7,11.8,4.7,18.7s-1.5,13.1-4.4,18.7c-2.9,5.6-7,10-12.1,13.1
			c-5.1,3.2-10.9,4.7-17.2,4.7c-5.1,0-9.8-1.1-14.2-3.2c-4.4-2.1-8.1-5.1-11.2-8.8v35.6c0,2-0.6,3.6-1.8,4.9
			c-1.2,1.2-2.9,1.8-4.9,1.8c-1.9,0-3.5-0.6-4.8-1.8c-1.3-1.2-1.9-2.9-1.9-4.9v-60.1c0-6.9,1.6-13.1,4.8-18.7
			c3.2-5.6,7.6-10,13-13.2c5.5-3.2,11.6-4.8,18.4-4.8C1140.4,137.1,1146.6,138.7,1152.2,142z M1145.6,195.2c3.6-2.2,6.4-5.1,8.4-8.8
			c2.1-3.7,3.1-7.9,3.1-12.6c0-4.7-1-8.9-3.1-12.7c-2.1-3.8-4.9-6.7-8.4-8.9c-3.6-2.2-7.5-3.2-11.9-3.2c-4.4,0-8.4,1.1-11.9,3.2
			c-3.6,2.2-6.3,5.1-8.4,8.9c-2,3.8-3,8-3,12.7c0,4.7,1,8.9,3,12.6c2,3.7,4.8,6.7,8.4,8.8c3.6,2.2,7.5,3.2,11.9,3.2
			C1138,198.4,1142,197.4,1145.6,195.2z"/>
		<path class="st5" d="M1192,123.4c-1.7-1.7-2.6-3.8-2.6-6.1c0-2.4,0.9-4.4,2.6-6.1c1.7-1.7,3.8-2.6,6.1-2.6c2.4,0,4.4,0.9,6.1,2.6
			c1.7,1.7,2.6,3.8,2.6,6.1c0,2.4-0.9,4.4-2.6,6.1c-1.7,1.7-3.8,2.6-6.1,2.6C1195.7,125.9,1193.7,125.1,1192,123.4z M1193.3,207.9
			c-1.3-1.3-1.9-2.9-1.9-4.8v-58.7c0-2,0.6-3.6,1.9-4.9c1.3-1.2,2.9-1.8,4.8-1.8c2,0,3.6,0.6,4.9,1.8c1.2,1.2,1.8,2.9,1.8,4.9V203
			c0,1.9-0.6,3.5-1.8,4.8c-1.2,1.3-2.9,1.9-4.9,1.9C1196.2,209.8,1194.6,209.1,1193.3,207.9z"/>
		<path class="st5" d="M1282.1,141c4.8,2.6,8.6,6.5,11.3,11.5c2.7,5.1,4.1,11.1,4.1,18.3v32.4c0,1.9-0.6,3.5-1.9,4.8
			c-1.3,1.3-2.9,1.9-4.8,1.9c-1.9,0-3.5-0.6-4.8-1.9c-1.3-1.3-1.9-2.9-1.9-4.8v-32.4c0-7.1-1.9-12.5-5.7-16.1
			c-3.8-3.6-8.9-5.5-15.2-5.5c-3.7,0-7.1,0.7-10.1,2.2c-3,1.5-5.4,3.5-7.1,6.1c-1.7,2.5-2.6,5.4-2.6,8.6v37.2c0,1.9-0.6,3.5-1.8,4.8
			c-1.2,1.3-2.9,1.9-4.9,1.9c-1.9,0-3.5-0.6-4.8-1.9c-1.3-1.3-1.9-2.9-1.9-4.8v-58.8c0-2,0.6-3.6,1.9-4.9c1.3-1.2,2.9-1.8,4.8-1.8
			c2,0,3.6,0.6,4.9,1.8c1.2,1.2,1.8,2.9,1.8,4.9v1.4c2.8-2.8,6.1-5,10-6.5c3.9-1.5,8-2.3,12.4-2.3
			C1271.8,137,1277.2,138.3,1282.1,141z"/>
		<path class="st5" d="M1371.1,141.8c5.5,3.1,9.8,7.4,12.9,13c3.1,5.5,4.7,11.9,4.7,19v28.5c0,6.9-1.5,13.3-4.6,19
			c-3.1,5.7-7.4,10.2-13,13.5c-5.6,3.3-11.9,4.9-18.9,4.9c-6.3,0-12.2-1.3-17.7-3.8c-5.4-2.5-10-6.1-13.7-10.7
			c-1-1.2-1.4-2.5-1.4-3.7c0-1.8,0.9-3.4,2.8-4.7c1.2-0.8,2.5-1.2,3.7-1.2c2.2,0,4,0.9,5.4,2.8c2.4,3.1,5.4,5.4,9,7.1
			c3.6,1.6,7.7,2.4,12.3,2.4c4.3,0,8.2-1,11.7-3.1c3.5-2.1,6.3-5.1,8.4-9.1c2.1-4,3.2-8.8,3.2-14.3v-6.5c-2.7,4.8-6.3,8.6-10.8,11.3
			c-4.5,2.7-9.5,4.1-15.2,4.1c-6.5,0-12.3-1.6-17.5-4.7c-5.1-3.1-9.1-7.4-12-13c-2.9-5.5-4.3-11.8-4.3-18.8c0-7.1,1.5-13.4,4.6-19
			c3.1-5.5,7.4-9.9,12.9-13c5.5-3.1,11.8-4.7,18.8-4.7C1359.4,137.1,1365.6,138.7,1371.1,141.8z M1364.5,195.3
			c3.6-2.1,6.3-5,8.3-8.8c2-3.7,3-8,3-12.7c0-4.7-1-9-3-12.8c-2-3.8-4.7-6.7-8.3-8.8c-3.6-2.1-7.6-3.2-12.1-3.2
			c-4.5,0-8.5,1.1-12.1,3.2s-6.3,5.1-8.4,8.8c-2,3.8-3,8-3,12.8c0,4.7,1,9,3,12.7c2,3.7,4.8,6.7,8.4,8.8c3.6,2.1,7.6,3.2,12.1,3.2
			C1356.9,198.4,1360.9,197.4,1364.5,195.3z"/>
	</g>
</g>
</svg>
